%YAML 1.1
%TAG !u! tag:unity3d.com,2011:
--- !u!114 &11400000
MonoBehaviour:
  m_ObjectHideFlags: 0
  m_CorrespondingSourceObject: {fileID: 0}
  m_PrefabInstance: {fileID: 0}
  m_PrefabAsset: {fileID: 0}
  m_GameObject: {fileID: 0}
  m_Enabled: 1
  m_EditorHideFlags: 0
  m_Script: {fileID: 11500000, guid: c333ccfdd0cbdbc4ca30cef2dd6e6b9b, type: 3}
  m_Name: AudioRenderer
  m_EditorClassIdentifier: 
  serializedUdonProgramAsset: {fileID: 11400000, guid: 5fcfa6ef33039564fb764548cb7af688,
    type: 2}
  udonAssembly: 
  assemblyError: 
  sourceCsScript: {fileID: 11500000, guid: 027e30415ac8b5e48be4edffd6e3011b, type: 3}
  behaviourIDHeapVarName: __refl_const_intnl_udonTypeID
  compileErrors: []
  hasInteractEvent: 0
  serializationData:
    SerializedFormat: 2
    SerializedBytes: 
    ReferencedUnityObjects:
    - {fileID: 11500000, guid: f68b93e9d30f7ba4ebb993086a72eb57, type: 3}
    SerializedBytesString: 
    Prefab: {fileID: 0}
    PrefabModificationsReferencedUnityObjects: []
    PrefabModifications: []
    SerializationNodes:
    - Name: fieldDefinitions
      Entry: 7
      Data: 0|System.Collections.Generic.Dictionary`2[[System.String, mscorlib],[UdonSharp.Compiler.FieldDefinition,
        UdonSharp.Editor]], mscorlib
    - Name: comparer
      Entry: 7
      Data: 1|System.Collections.Generic.GenericEqualityComparer`1[[System.String,
        mscorlib]], mscorlib
    - Name: 
      Entry: 8
      Data: 
    - Name: 
      Entry: 12
      Data: 6
    - Name: 
      Entry: 7
      Data: 
    - Name: $k
      Entry: 1
      Data: audioFilterSource
    - Name: $v
      Entry: 7
      Data: 2|UdonSharp.Compiler.FieldDefinition, UdonSharp.Editor
    - Name: fieldSymbol
      Entry: 7
      Data: 3|UdonSharp.Compiler.SymbolDefinition, UdonSharp.Editor
    - Name: internalType
      Entry: 7
      Data: 4|System.RuntimeType, mscorlib
    - Name: 
      Entry: 1
      Data: ShaderAudio.AudioFilterSource, Assembly-CSharp
    - Name: 
      Entry: 8
      Data: 
    - Name: declarationType
      Entry: 3
      Data: 1
    - Name: syncMode
      Entry: 3
      Data: 0
    - Name: symbolResolvedTypeName
      Entry: 1
      Data: VRCUdonUdonBehaviour
    - Name: symbolOriginalName
      Entry: 1
      Data: audioFilterSource
    - Name: symbolUniqueName
      Entry: 1
      Data: audioFilterSource
    - Name: symbolDefaultValue
      Entry: 6
      Data: 
    - Name: 
      Entry: 8
      Data: 
    - Name: fieldAttributes
      Entry: 7
      Data: 5|System.Collections.Generic.List`1[[System.Attribute, mscorlib]], mscorlib
    - Name: 
      Entry: 12
      Data: 0
    - Name: 
      Entry: 13
      Data: 
    - Name: 
      Entry: 8
      Data: 
    - Name: userBehaviourSource
      Entry: 10
      Data: 0
    - Name: 
      Entry: 8
      Data: 
    - Name: 
      Entry: 8
      Data: 
    - Name: 
      Entry: 7
      Data: 
    - Name: $k
      Entry: 1
      Data: texture
    - Name: $v
      Entry: 7
      Data: 6|UdonSharp.Compiler.FieldDefinition, UdonSharp.Editor
    - Name: fieldSymbol
      Entry: 7
      Data: 7|UdonSharp.Compiler.SymbolDefinition, UdonSharp.Editor
    - Name: internalType
      Entry: 7
      Data: 8|System.RuntimeType, mscorlib
    - Name: 
      Entry: 1
      Data: UnityEngine.Texture2D, UnityEngine.CoreModule
    - Name: 
      Entry: 8
      Data: 
    - Name: declarationType
      Entry: 3
      Data: 1
    - Name: syncMode
      Entry: 3
      Data: 0
    - Name: symbolResolvedTypeName
      Entry: 1
      Data: UnityEngineTexture2D
    - Name: symbolOriginalName
      Entry: 1
      Data: texture
    - Name: symbolUniqueName
      Entry: 1
      Data: texture
    - Name: symbolDefaultValue
      Entry: 6
      Data: 
    - Name: 
      Entry: 8
      Data: 
    - Name: fieldAttributes
      Entry: 7
      Data: 9|System.Collections.Generic.List`1[[System.Attribute, mscorlib]], mscorlib
    - Name: 
      Entry: 12
      Data: 0
    - Name: 
      Entry: 13
      Data: 
    - Name: 
      Entry: 8
      Data: 
    - Name: userBehaviourSource
      Entry: 6
      Data: 
    - Name: 
      Entry: 8
      Data: 
    - Name: 
      Entry: 8
      Data: 
    - Name: 
      Entry: 7
      Data: 
    - Name: $k
      Entry: 1
      Data: renderer
    - Name: $v
      Entry: 7
      Data: 10|UdonSharp.Compiler.FieldDefinition, UdonSharp.Editor
    - Name: fieldSymbol
      Entry: 7
      Data: 11|UdonSharp.Compiler.SymbolDefinition, UdonSharp.Editor
    - Name: internalType
      Entry: 7
      Data: 12|System.RuntimeType, mscorlib
    - Name: 
      Entry: 1
      Data: UnityEngine.Renderer, UnityEngine.CoreModule
    - Name: 
      Entry: 8
      Data: 
    - Name: declarationType
      Entry: 3
      Data: 2
    - Name: syncMode
      Entry: 3
      Data: 0
    - Name: symbolResolvedTypeName
      Entry: 1
      Data: UnityEngineRenderer
    - Name: symbolOriginalName
      Entry: 1
      Data: renderer
    - Name: symbolUniqueName
      Entry: 1
      Data: renderer
    - Name: symbolDefaultValue
      Entry: 6
      Data: 
    - Name: 
      Entry: 8
      Data: 
    - Name: fieldAttributes
      Entry: 7
      Data: 13|System.Collections.Generic.List`1[[System.Attribute, mscorlib]], mscorlib
    - Name: 
      Entry: 12
      Data: 0
    - Name: 
      Entry: 13
      Data: 
    - Name: 
      Entry: 8
      Data: 
    - Name: userBehaviourSource
      Entry: 6
      Data: 
    - Name: 
      Entry: 8
      Data: 
    - Name: 
      Entry: 8
      Data: 
    - Name: 
      Entry: 7
      Data: 
    - Name: $k
      Entry: 1
      Data: rect
    - Name: $v
      Entry: 7
      Data: 14|UdonSharp.Compiler.FieldDefinition, UdonSharp.Editor
    - Name: fieldSymbol
      Entry: 7
      Data: 15|UdonSharp.Compiler.SymbolDefinition, UdonSharp.Editor
    - Name: internalType
      Entry: 7
      Data: 16|System.RuntimeType, mscorlib
    - Name: 
      Entry: 1
      Data: UnityEngine.Rect, UnityEngine.CoreModule
    - Name: 
      Entry: 8
      Data: 
    - Name: declarationType
      Entry: 3
      Data: 2
    - Name: syncMode
      Entry: 3
      Data: 0
    - Name: symbolResolvedTypeName
      Entry: 1
      Data: UnityEngineRect
    - Name: symbolOriginalName
      Entry: 1
      Data: rect
    - Name: symbolUniqueName
      Entry: 1
      Data: rect
    - Name: symbolDefaultValue
      Entry: 6
      Data: 
    - Name: 
      Entry: 8
      Data: 
    - Name: fieldAttributes
      Entry: 7
      Data: 17|System.Collections.Generic.List`1[[System.Attribute, mscorlib]], mscorlib
    - Name: 
      Entry: 12
      Data: 0
    - Name: 
      Entry: 13
      Data: 
    - Name: 
      Entry: 8
      Data: 
    - Name: userBehaviourSource
      Entry: 6
      Data: 
    - Name: 
      Entry: 8
      Data: 
    - Name: 
      Entry: 8
      Data: 
    - Name: 
      Entry: 7
      Data: 
    - Name: $k
      Entry: 1
      Data: buffer
    - Name: $v
      Entry: 7
      Data: 18|UdonSharp.Compiler.FieldDefinition, UdonSharp.Editor
    - Name: fieldSymbol
      Entry: 7
      Data: 19|UdonSharp.Compiler.SymbolDefinition, UdonSharp.Editor
    - Name: internalType
      Entry: 7
      Data: 20|System.RuntimeType, mscorlib
    - Name: 
      Entry: 1
      Data: UnityEngine.Color[], UnityEngine.CoreModule
    - Name: 
      Entry: 8
      Data: 
    - Name: declarationType
      Entry: 3
      Data: 2
    - Name: syncMode
      Entry: 3
      Data: 0
    - Name: symbolResolvedTypeName
      Entry: 1
      Data: UnityEngineColorArray
    - Name: symbolOriginalName
      Entry: 1
      Data: buffer
    - Name: symbolUniqueName
      Entry: 1
      Data: buffer
    - Name: symbolDefaultValue
      Entry: 6
      Data: 
    - Name: 
      Entry: 8
      Data: 
    - Name: fieldAttributes
      Entry: 7
      Data: 21|System.Collections.Generic.List`1[[System.Attribute, mscorlib]], mscorlib
    - Name: 
      Entry: 12
      Data: 0
    - Name: 
      Entry: 13
      Data: 
    - Name: 
      Entry: 8
      Data: 
    - Name: userBehaviourSource
      Entry: 6
      Data: 
    - Name: 
      Entry: 8
      Data: 
    - Name: 
      Entry: 8
      Data: 
    - Name: 
      Entry: 7
      Data: 
    - Name: $k
      Entry: 1
      Data: matPropBlock
    - Name: $v
      Entry: 7
      Data: 22|UdonSharp.Compiler.FieldDefinition, UdonSharp.Editor
    - Name: fieldSymbol
      Entry: 7
      Data: 23|UdonSharp.Compiler.SymbolDefinition, UdonSharp.Editor
    - Name: internalType
      Entry: 7
      Data: 24|System.RuntimeType, mscorlib
    - Name: 
      Entry: 1
      Data: UnityEngine.MaterialPropertyBlock, UnityEngine.CoreModule
    - Name: 
      Entry: 8
      Data: 
    - Name: declarationType
      Entry: 3
      Data: 2
    - Name: syncMode
      Entry: 3
      Data: 0
    - Name: symbolResolvedTypeName
      Entry: 1
      Data: UnityEngineMaterialPropertyBlock
    - Name: symbolOriginalName
      Entry: 1
      Data: matPropBlock
    - Name: symbolUniqueName
      Entry: 1
      Data: matPropBlock
    - Name: symbolDefaultValue
      Entry: 6
      Data: 
    - Name: 
      Entry: 8
      Data: 
    - Name: fieldAttributes
      Entry: 7
      Data: 25|System.Collections.Generic.List`1[[System.Attribute, mscorlib]], mscorlib
    - Name: 
      Entry: 12
      Data: 0
    - Name: 
      Entry: 13
      Data: 
    - Name: 
      Entry: 8
      Data: 
    - Name: userBehaviourSource
      Entry: 6
      Data: 
    - Name: 
      Entry: 8
      Data: 
    - Name: 
      Entry: 8
      Data: 
    - Name: 
      Entry: 13
      Data: 
    - Name: 
      Entry: 8
      Data: 
